Reading and Manipulating Data
…
Glass Data

Read this data into R directly from the URL using functions from the tidyverse. Notice that the data doesn’t include column names - add those (in a manner of your choosing). Print out the tibble (just call the object name).

#read in data from file folder per professor Post instruction. 
glass_data <- read_delim(
  "glass.data",
  delim = ",",
  col_names = c("ID", "RI", "Na", "Mg", "Al", "Si", "K", "Ca", "Ba", "Fe", "Type"),
  show_col_types = FALSE
  )
glass_data

# A tibble: 214 × 11
      ID    RI    Na    Mg    Al    Si     K    Ca    Ba    Fe  Type
   <dbl> <dbl> <dbl> <dbl> <dbl> <dbl> <dbl> <dbl> <dbl> <dbl> <dbl>
 1     1  1.52  13.6  4.49  1.1   71.8  0.06  8.75     0  0        1
 2     2  1.52  13.9  3.6   1.36  72.7  0.48  7.83     0  0        1
 3     3  1.52  13.5  3.55  1.54  73.0  0.39  7.78     0  0        1
 4     4  1.52  13.2  3.69  1.29  72.6  0.57  8.22     0  0        1
 5     5  1.52  13.3  3.62  1.24  73.1  0.55  8.07     0  0        1
 6     6  1.52  12.8  3.61  1.62  73.0  0.64  8.07     0  0.26     1
 7     7  1.52  13.3  3.6   1.14  73.1  0.58  8.17     0  0        1
 8     8  1.52  13.2  3.61  1.05  73.2  0.57  8.24     0  0        1
 9     9  1.52  14.0  3.58  1.37  72.1  0.56  8.3      0  0        1
10    10  1.52  13    3.6   1.36  73.0  0.57  8.4      0  0.11     1
# ℹ 204 more rows
…
glass_data

# A tibble: 214 × 11
      ID    RI    Na    Mg    Al    Si     K    Ca    Ba    Fe Type             
   <dbl> <dbl> <dbl> <dbl> <dbl> <dbl> <dbl> <dbl> <dbl> <dbl> <chr>            
 1     1  1.52  13.6  4.49  1.1   71.8  0.06  8.75     0  0    building_windows…
 2     2  1.52  13.9  3.6   1.36  72.7  0.48  7.83     0  0    building_windows…
 3     3  1.52  13.5  3.55  1.54  73.0  0.39  7.78     0  0    building_windows…
 4     4  1.52  13.2  3.69  1.29  72.6  0.57  8.22     0  0    building_windows…
 5     5  1.52  13.3  3.62  1.24  73.1  0.55  8.07     0  0    building_windows…
 6     6  1.52  12.8  3.61  1.62  73.0  0.64  8.07     0  0.26 building_windows…
 7     7  1.52  13.3  3.6   1.14  73.1  0.58  8.17     0  0    building_windows…
 8     8  1.52  13.2  3.61  1.05  73.2  0.57  8.24     0  0    building_windows…
 9     9  1.52  14.0  3.58  1.37  72.1  0.56  8.3      0  0    building_windows…
10    10  1.52  13    3.6   1.36  73.0  0.57  8.4      0  0.11 building_windows…
# ℹ 204 more rows

Continue your chain and keep only observations where the Fe variable is less than 0.2 and the Type of Glass is either “tableware” or “headlamp”.

glass_data |>
  filter(Fe < 0.2)

# A tibble: 189 × 11
      ID    RI    Na    Mg    Al    Si     K    Ca    Ba    Fe Type             
   <dbl> <dbl> <dbl> <dbl> <dbl> <dbl> <dbl> <dbl> <dbl> <dbl> <chr>            
 1     1  1.52  13.6  4.49  1.1   71.8  0.06  8.75     0  0    building_windows…
 2     2  1.52  13.9  3.6   1.36  72.7  0.48  7.83     0  0    building_windows…
 3     3  1.52  13.5  3.55  1.54  73.0  0.39  7.78     0  0    building_windows…
 4     4  1.52  13.2  3.69  1.29  72.6  0.57  8.22     0  0    building_windows…
 5     5  1.52  13.3  3.62  1.24  73.1  0.55  8.07     0  0    building_windows…
 6     7  1.52  13.3  3.6   1.14  73.1  0.58  8.17     0  0    building_windows…
 7     8  1.52  13.2  3.61  1.05  73.2  0.57  8.24     0  0    building_windows…
 8     9  1.52  14.0  3.58  1.37  72.1  0.56  8.3      0  0    building_windows…
 9    10  1.52  13    3.6   1.36  73.0  0.57  8.4      0  0.11 building_windows…
10    12  1.52  12.8  3.66  1.27  73.0  0.6   8.56     0  0    building_windows…
# ℹ 179 more rows

#cannot get filter to work properly

glass_data

# A tibble: 214 × 11
      ID    RI    Na    Mg    Al    Si     K    Ca    Ba    Fe Type             
   <dbl> <dbl> <dbl> <dbl> <dbl> <dbl> <dbl> <dbl> <dbl> <dbl> <chr>            
 1     1  1.52  13.6  4.49  1.1   71.8  0.06  8.75     0  0    building_windows…
 2     2  1.52  13.9  3.6   1.36  72.7  0.48  7.83     0  0    building_windows…
 3     3  1.52  13.5  3.55  1.54  73.0  0.39  7.78     0  0    building_windows…
 4     4  1.52  13.2  3.69  1.29  72.6  0.57  8.22     0  0    building_windows…
 5     5  1.52  13.3  3.62  1.24  73.1  0.55  8.07     0  0    building_windows…
 6     6  1.52  12.8  3.61  1.62  73.0  0.64  8.07     0  0.26 building_windows…
 7     7  1.52  13.3  3.6   1.14  73.1  0.58  8.17     0  0    building_windows…
 8     8  1.52  13.2  3.61  1.05  73.2  0.57  8.24     0  0    building_windows…
 9     9  1.52  14.0  3.58  1.37  72.1  0.56  8.3      0  0    building_windows…
10    10  1.52  13    3.6   1.36  73.0  0.57  8.4      0  0.11 building_windows…
# ℹ 204 more rows

Yeast Data

1. Read this data into R directly from the URL using functions from the tidyverse. Notice that the data doesn’t include column names - add those (in a manner of your choosing). Print out the tibble (just call the object name).

yeast_data <- read_table(
  "yeast.data",
  col_names = c("seq_name", "mcg", "gvh", "alm", "mit", "erl", "pox", "vac", "nuc", "class"),
  show_col_types = FALSE
  )

yeast_data

# A tibble: 1,484 × 10
   seq_name     mcg   gvh   alm   mit   erl   pox   vac   nuc class
   <chr>      <dbl> <dbl> <dbl> <dbl> <dbl> <dbl> <dbl> <dbl> <chr>
 1 ADT1_YEAST  0.58  0.61  0.47  0.13   0.5   0    0.48  0.22 MIT  
 2 ADT2_YEAST  0.43  0.67  0.48  0.27   0.5   0    0.53  0.22 MIT  
 3 ADT3_YEAST  0.64  0.62  0.49  0.15   0.5   0    0.53  0.22 MIT  
 4 AAR2_YEAST  0.58  0.44  0.57  0.13   0.5   0    0.54  0.22 NUC  
 5 AATM_YEAST  0.42  0.44  0.48  0.54   0.5   0    0.48  0.22 MIT  
 6 AATC_YEAST  0.51  0.4   0.56  0.17   0.5   0.5  0.49  0.22 CYT  
 7 ABC1_YEAST  0.5   0.54  0.48  0.65   0.5   0    0.53  0.22 MIT  
 8 BAF1_YEAST  0.48  0.45  0.59  0.2    0.5   0    0.58  0.34 NUC  
 9 ABF2_YEAST  0.55  0.5   0.66  0.36   0.5   0    0.49  0.22 MIT  
10 ABP1_YEAST  0.4   0.39  0.6   0.15   0.5   0    0.58  0.3  CYT  
# ℹ 1,474 more rows

2. Start a chain that removes the seq_name and nuc columns.

yeast_data <- yeast_data |> 
  select(mcg:vac, class)

yeast_data

# A tibble: 1,484 × 8
     mcg   gvh   alm   mit   erl   pox   vac class
   <dbl> <dbl> <dbl> <dbl> <dbl> <dbl> <dbl> <chr>
 1  0.58  0.61  0.47  0.13   0.5   0    0.48 MIT  
 2  0.43  0.67  0.48  0.27   0.5   0    0.53 MIT  
 3  0.64  0.62  0.49  0.15   0.5   0    0.53 MIT  
 4  0.58  0.44  0.57  0.13   0.5   0    0.54 NUC  
 5  0.42  0.44  0.48  0.54   0.5   0    0.48 MIT  
 6  0.51  0.4   0.56  0.17   0.5   0.5  0.49 CYT  
 7  0.5   0.54  0.48  0.65   0.5   0    0.53 MIT  
 8  0.48  0.45  0.59  0.2    0.5   0    0.58 NUC  
 9  0.55  0.5   0.66  0.36   0.5   0    0.49 MIT  
10  0.4   0.39  0.6   0.15   0.5   0    0.58 CYT  
# ℹ 1,474 more rows

3. Continue your chain to add columns corresponding to the mean and median of each numeric variable (mcg, gvh, alm, mit, erl, pox, and vac) at each class grouping (see the across() function as we did in the dplyr video!).

yeast_data <- yeast_data |> 
  select(mcg:vac, class) |>
  mutate(across(where(is.numeric), list(mean = mean, sd = sd), .names = "{.col}_{.fn}")) |>
  dplyr::arrange(class) |>
  group_by(class) 

  yeast_data

# A tibble: 1,484 × 22
# Groups:   class [10]
     mcg   gvh   alm   mit   erl   pox   vac class mcg_mean mcg_sd gvh_mean
   <dbl> <dbl> <dbl> <dbl> <dbl> <dbl> <dbl> <chr>    <dbl>  <dbl>    <dbl>
 1  0.51  0.4   0.56  0.17   0.5   0.5  0.49 CYT      0.500  0.137    0.500
 2  0.4   0.39  0.6   0.15   0.5   0    0.58 CYT      0.500  0.137    0.500
 3  0.4   0.42  0.57  0.35   0.5   0    0.53 CYT      0.500  0.137    0.500
 4  0.46  0.44  0.52  0.11   0.5   0    0.5  CYT      0.500  0.137    0.500
 5  0.47  0.39  0.5   0.11   0.5   0    0.49 CYT      0.500  0.137    0.500
 6  0.45  0.4   0.5   0.16   0.5   0    0.5  CYT      0.500  0.137    0.500
 7  0.43  0.44  0.48  0.22   0.5   0    0.51 CYT      0.500  0.137    0.500
 8  0.73  0.63  0.42  0.3    0.5   0    0.49 CYT      0.500  0.137    0.500
 9  0.43  0.53  0.52  0.13   0.5   0    0.55 CYT      0.500  0.137    0.500
10  0.46  0.53  0.52  0.15   0.5   0    0.58 CYT      0.500  0.137    0.500
# ℹ 1,474 more rows
# ℹ 11 more variables: gvh_sd <dbl>, alm_mean <dbl>, alm_sd <dbl>,
#   mit_mean <dbl>, mit_sd <dbl>, erl_mean <dbl>, erl_sd <dbl>, pox_mean <dbl>,
#   pox_sd <dbl>, vac_mean <dbl>, vac_sd <dbl>
…
There is an excel version of the white wine data set available at https://www4.stat.ncsu.edu/~online/datasets/white-wine.xlsx.

• Download this file

• Place it in a folder you know (such as your working directory for your project)

• Import the data from the first sheet using the readxl package

• Print out the tibble (just call the object name)

white_wine_data <- read_excel("white-wine.xlsx")
white_wine_data

# A tibble: 4,898 × 12
   `fixed acidity` `volatile acidity` `citric acid` `residual sugar` chlorides
             <dbl>              <dbl>         <dbl>            <dbl>     <dbl>
 1               7               0.27          0.36             20.7     0.045
 2              63               0.3           0.34              1.6     0.049
 3              81               0.28          0.4               6.9     0.05 
 4              72               0.23          0.32              8.5     0.058
 5              72               0.23          0.32              8.5     0.058
 6              81               0.28          0.4               6.9     0.05 
 7              62               0.32          0.16              7       0.045
 8               7               0.27          0.36             20.7     0.045
 9              63               0.3           0.34              1.6     0.049
10              81               0.22          0.43              1.5     0.044
# ℹ 4,888 more rows
# ℹ 7 more variables: `free sulfur dioxide` <dbl>,
#   `total sulfur dioxide` <dbl>, density <dbl>, pH <dbl>, sulphates <dbl>,
#   alcohol <dbl>, quality <dbl>

2. When you print the data set out to the console, you may notice that some of the variable names are surrounded by backticks. This is because they are non-standard (they include a space in them). We can rename them in a number of ways. We’ll do it by reading in the variable names from the 2nd sheet of the same file.

• Read in the data from the 2nd sheet. This should return a data frame with one column containing alternative versions of the variable names. • Grab that column and overwrite the current column names (colnames()) of your white wine tibble

white_wine_variables <- read_excel("white-wine.xlsx",
  sheet = excel_sheets("white-wine.xlsx")[2])

colnames(white_wine_data) <- white_wine_variables$Variables

white_wine_data

# A tibble: 4,898 × 12
   fixed_acidity volatile_acidity citric_acid residual_sugar chlorides
           <dbl>            <dbl>       <dbl>          <dbl>     <dbl>
 1             7             0.27        0.36           20.7     0.045
 2            63             0.3         0.34            1.6     0.049
 3            81             0.28        0.4             6.9     0.05 
 4            72             0.23        0.32            8.5     0.058
 5            72             0.23        0.32            8.5     0.058
 6            81             0.28        0.4             6.9     0.05 
 7            62             0.32        0.16            7       0.045
 8             7             0.27        0.36           20.7     0.045
 9            63             0.3         0.34            1.6     0.049
10            81             0.22        0.43            1.5     0.044
# ℹ 4,888 more rows
# ℹ 7 more variables: free_sulfur_dioxide <dbl>, total_sulfur_dioxide <dbl>,
#   density <dbl>, pH <dbl>, sulphates <dbl>, alcohol <dbl>, quality <dbl>

3. Lastly, add a column to this data set to indicate the wines are white. That is, add a column that has values of ‘white’ for every observation.

for (i in white_wine_data[1]){
  white_wine_data$color <- c("white")
}

white_wine_data

# A tibble: 4,898 × 13
   fixed_acidity volatile_acidity citric_acid residual_sugar chlorides
           <dbl>            <dbl>       <dbl>          <dbl>     <dbl>
 1             7             0.27        0.36           20.7     0.045
 2            63             0.3         0.34            1.6     0.049
 3            81             0.28        0.4             6.9     0.05 
 4            72             0.23        0.32            8.5     0.058
 5            72             0.23        0.32            8.5     0.058
 6            81             0.28        0.4             6.9     0.05 
 7            62             0.32        0.16            7       0.045
 8             7             0.27        0.36           20.7     0.045
 9            63             0.3         0.34            1.6     0.049
10            81             0.22        0.43            1.5     0.044
# ℹ 4,888 more rows
# ℹ 8 more variables: free_sulfur_dioxide <dbl>, total_sulfur_dioxide <dbl>,
#   density <dbl>, pH <dbl>, sulphates <dbl>, alcohol <dbl>, quality <dbl>,
#   color <chr>
…
red_wine_data

# A tibble: 1,600 × 12
   fixed_acidity volatile_acidity citric_acid residual_sugar chlorides
   <chr>         <chr>            <chr>       <chr>          <chr>    
 1 fixed acidity volatile acidity citric acid residual sugar chlorides
 2 7.4           0.7              0           1.9            0.076    
 3 7.8           0.88             0           2.6            0.098    
 4 7.8           0.76             0.04        2.3            0.092    
 5 11.2          0.28             0.56        1.9            0.075    
 6 7.4           0.7              0           1.9            0.076    
 7 7.4           0.66             0           1.8            0.075    
 8 7.9           0.6              0.06        1.6            0.069    
 9 7.3           0.65             0           1.2            0.065    
10 7.8           0.58             0.02        2              0.073    
# ℹ 1,590 more rows
# ℹ 7 more variables: free_sulfur_dioxide <chr>, total_sulfur_dioxide <chr>,
#   density <chr>, pH <chr>, sulphates <chr>, alcohol <chr>, quality <chr>
…
